module codeberg.org/fsologureng/wsrl

go 1.18

require go.uber.org/zap v1.23.0

require (
	github.com/caddyserver/certmagic v0.17.2 // indirect
	github.com/klauspost/cpuid/v2 v2.1.1 // indirect
	github.com/libdns/libdns v0.2.1 // indirect
	github.com/mholt/acmez v1.0.4 // indirect
	github.com/miekg/dns v1.1.50 // indirect
	go.uber.org/atomic v1.7.0 // indirect
	go.uber.org/multierr v1.6.0 // indirect
	golang.org/x/crypto v0.0.0-20220722155217-630584e8d5aa // indirect
	golang.org/x/mod v0.4.2 // indirect
	golang.org/x/net v0.0.0-20220805013720-a33c5aa5df48 // indirect
	golang.org/x/sys v0.0.0-20220728004956-3c1f35247d10 // indirect
	golang.org/x/text v0.3.7 // indirect
	golang.org/x/tools v0.1.6-0.20210726203631-07bc1bf47fb2 // indirect
	golang.org/x/xerrors v0.0.0-20200804184101-5ec99f83aff1 // indirect
	gopkg.in/ini.v1 v1.67.0 // indirect
)
